<svg width="41" height="42" viewBox="0 0 41 42" fill="none" xmlns="http://www.w3.org/2000/svg">
<path opacity="0.3" d="M0.151417 6.50814C0.764095 9.23455 2.69403 11.4096 4.56882 13.4988L19.8858 30.3597C20.6823 31.2419 21.7728 32.1977 22.9002 31.8424C23.9111 31.5177 24.3216 30.2249 24.0642 29.1956C23.7115 28.1911 23.1474 27.2739 22.41 26.5059C18.8871 22.1498 16.6937 16.9114 14.0653 11.9794C12.068 8.21751 9.72757 4.54144 6.49263 1.71699C4.74038 0.197553 3.33122 -0.935902 1.46867 1.10432C0.848444 1.84315 0.406942 2.71506 0.178483 3.65227C-0.0499765 4.58949 -0.0592387 5.56676 0.151417 6.50814Z" fill="#878593"/>
<path d="M6.54787 15.2651L5.57904 14.495C5.21879 14.2087 4.69463 14.2686 4.40828 14.6288C4.12193 14.9891 4.18184 15.5133 4.54209 15.7996L5.51092 16.5697C5.87116 16.856 6.39533 16.7961 6.68168 16.4359C6.96803 16.0756 6.90812 15.5515 6.54787 15.2651Z" stroke="white" stroke-width="0.75" stroke-linecap="round" stroke-linejoin="round"/>
<path d="M34.6209 29.4472C34.4432 28.5098 34.2043 27.4621 33.3955 26.9413C32.7327 26.6199 31.999 26.4723 31.2634 26.5125C29.8933 26.4399 28.5646 26.018 27.4035 25.2871C26.7102 24.806 26.064 24.2604 25.4736 23.6574L21.8894 20.2203C21.6945 20.0071 21.5451 19.7564 21.4503 19.4836C21.3555 19.2108 21.3173 18.9215 21.338 18.6334C21.4321 18.1861 21.6345 17.7687 21.9275 17.4178C22.2205 17.067 22.5951 16.7933 23.0185 16.621C23.4419 16.4486 23.9011 16.3827 24.3558 16.4292C24.8106 16.4756 25.247 16.6329 25.6268 16.8873C26.3865 17.4019 27.0727 18.3393 27.9672 18.1127C28.2184 16.8873 28.5064 15.4843 28.7575 14.2283C27.6022 12.0941 26.2938 10.0465 24.8425 8.10149C24.7699 7.98417 24.6688 7.88719 24.5485 7.81966C24.3681 7.75564 24.1712 7.75564 23.9909 7.81966C22.6859 8.17501 16.1241 9.7496 15.5176 5.91423C17.8948 5.76719 21.4115 2.50774 23.7887 2.18302C24.368 2.13383 24.9511 2.20956 25.4987 2.4051C26.0462 2.60064 26.5453 2.91144 26.9624 3.31648C27.7843 4.13776 28.4931 5.06494 29.07 6.07353C31.5207 9.90277 35.4051 12.96 37.1819 17.0221C38.3871 19.9534 39.3302 22.9858 40.0002 26.0836" stroke="white" stroke-width="0.75" stroke-linecap="round" stroke-linejoin="round"/>
<path d="M25.7986 9.63281C25.288 9.77169 24.7836 9.93302 24.2852 10.1168C23.6918 10.3085 23.1347 10.5985 22.6371 10.9746C22.3891 11.1646 22.1816 11.4024 22.0269 11.6738C21.8723 11.9453 21.7735 12.245 21.7365 12.5553C21.7252 13.0039 21.7979 13.4507 21.9509 13.8725C22.1722 14.7394 22.5278 15.5663 23.0047 16.3233" stroke="white" stroke-width="0.75" stroke-linecap="round" stroke-linejoin="round"/>
<path d="M27.7038 12.8188C27.3648 13.0476 27.034 13.2886 26.7113 13.5418C26.5788 13.6236 26.4824 13.7529 26.4417 13.9033C26.4361 14.0116 26.4594 14.1194 26.5091 14.2158C26.7419 14.7794 27.0483 15.3124 27.2382 15.8884C27.4614 16.4616 27.4744 17.0954 27.275 17.6774" stroke="white" stroke-width="0.75" stroke-linecap="round" stroke-linejoin="round"/>
<path d="M7.20362 13.3459L0.831765 3.929C0.750167 3.81219 0.692812 3.6802 0.663093 3.54084C0.633375 3.40149 0.631894 3.25759 0.658739 3.11765C0.685584 2.97772 0.740211 2.84458 0.819389 2.72612C0.898567 2.60765 1.00069 2.50626 1.11972 2.42794L3.29473 0.951381C3.41117 0.869491 3.54283 0.811751 3.68195 0.781566C3.82106 0.751381 3.96481 0.749364 4.10472 0.775632C4.24462 0.8019 4.37785 0.855922 4.49654 0.934511C4.61524 1.0131 4.71699 1.11466 4.79579 1.23321L23.6602 28.9937C23.7391 29.1095 23.7945 29.2397 23.8231 29.377C23.8517 29.5142 23.8529 29.6557 23.8268 29.7935C23.8006 29.9312 23.7475 30.0624 23.6706 30.1796C23.5936 30.2967 23.4943 30.3976 23.3783 30.4763L21.479 31.7385" stroke="white" stroke-width="0.75" stroke-linecap="round" stroke-linejoin="round"/>
<path d="M12.1474 28.3076C9.50066 25.4341 9.53742 20.6062 6.44952 18.2168C5.73882 17.6715 4.9117 17.2917 4.2255 16.7096C3.86331 16.4455 3.57697 16.0908 3.39523 15.6811C3.21348 15.2714 3.14273 14.821 3.19008 14.3753C3.42902 13.2357 4.8198 12.6537 5.96551 12.8742C7.09131 13.197 8.11479 13.8047 8.937 14.6388L12.8888 18.0207C14.243 19.1083 15.494 20.3183 16.6261 21.6355C18.4962 23.796 19.9409 26.2905 20.8842 28.9877C21.4356 30.5439 21.8645 33.5644 20.9455 34.9307L20.0203 41.0023" stroke="white" stroke-width="0.75" stroke-linecap="round" stroke-linejoin="round"/>
<path d="M3.67412 8.12598C3.61898 9.27781 2.97567 11.318 3.67412 13.5114" stroke="white" stroke-width="0.75" stroke-linecap="round" stroke-linejoin="round"/>
<path d="M4.75879 17.1138C5.54914 19.4297 6.56619 22.6891 7.35654 25.0051C7.86184 26.6164 8.49279 28.1856 9.24359 29.6982C10.2974 31.6955 11.7801 33.4907 12.454 35.6473C13.0463 37.5748 12.9466 39.6487 12.1722 41.5106" stroke="white" stroke-width="0.75" stroke-linecap="round" stroke-linejoin="round"/>
</svg>
