<svg width="72" height="72" viewBox="0 0 72 72" fill="none" xmlns="http://www.w3.org/2000/svg">
<circle cx="36" cy="36" r="35" stroke="#312783" stroke-width="2"/>
<rect x="14.4" y="21.6001" width="43.2" height="27.9" rx="1" stroke="#312783"/>
<path opacity="0.8" fill-rule="evenodd" clip-rule="evenodd" d="M18.9 26.5C18.9 26.2239 19.1239 26 19.4 26H52.6C52.7636 26 52.9088 26.0785 53 26.2C53.1215 26.2912 53.2 26.4364 53.2 26.6V44.5C53.2 44.7761 52.9761 45 52.7 45C52.6831 45 52.6664 44.9992 52.65 44.9975C52.6336 44.9992 52.6169 45 52.6 45H41H27.5H19.4C19.2274 45 19.0752 44.9126 18.9854 44.7796C18.9315 44.6998 18.9 44.6036 18.9 44.5V26.6C18.9 26.5831 18.9008 26.5664 18.9025 26.55C18.9008 26.5335 18.9 26.5169 18.9 26.5ZM52.2 44V31.5H41.5V44H52.2ZM52.2 30.5V27H41.5V30.5H52.2ZM40.5 31.5V44H28L28 31.5H40.5ZM27 31.5L27 44H19.9L19.9 31.5H27ZM19.9 30.5H27V27H19.9L19.9 30.5ZM28 30.5H40.5V27H28V30.5Z" fill="#312783"/>
<path d="M21.4496 27.8552H21.0068V27.74H22.0256V27.8552H21.5828V29H21.4496V27.8552ZM22.5 29.009C22.4088 29.009 22.3266 28.9886 22.2534 28.9478C22.1802 28.9058 22.1226 28.8482 22.0806 28.775C22.0386 28.7018 22.0176 28.619 22.0176 28.5266C22.0176 28.4342 22.0386 28.3514 22.0806 28.2782C22.1226 28.205 22.1802 28.148 22.2534 28.1072C22.3266 28.0664 22.4088 28.046 22.5 28.046C22.5912 28.046 22.6734 28.0664 22.7466 28.1072C22.8198 28.148 22.8768 28.205 22.9176 28.2782C22.9596 28.3514 22.9806 28.4342 22.9806 28.5266C22.9806 28.619 22.9596 28.7018 22.9176 28.775C22.8768 28.8482 22.8198 28.9058 22.7466 28.9478C22.6734 28.9886 22.5912 29.009 22.5 29.009ZM22.5 28.8956C22.5672 28.8956 22.6272 28.8806 22.68 28.8506C22.734 28.8194 22.776 28.7756 22.806 28.7192C22.836 28.6628 22.851 28.5986 22.851 28.5266C22.851 28.4546 22.836 28.3904 22.806 28.334C22.776 28.2776 22.734 28.2344 22.68 28.2044C22.6272 28.1732 22.5672 28.1576 22.5 28.1576C22.4328 28.1576 22.3722 28.1732 22.3182 28.2044C22.2654 28.2344 22.2234 28.2776 22.1922 28.334C22.1622 28.3904 22.1472 28.4546 22.1472 28.5266C22.1472 28.5986 22.1622 28.6628 22.1922 28.7192C22.2234 28.7756 22.2654 28.8194 22.3182 28.8506C22.3722 28.8806 22.4328 28.8956 22.5 28.8956ZM24.5766 27.6644V29H24.4542V28.8128C24.4158 28.8764 24.3648 28.925 24.3012 28.9586C24.2388 28.9922 24.168 29.009 24.0888 29.009C24 29.009 23.9196 28.9886 23.8476 28.9478C23.7756 28.907 23.7192 28.85 23.6784 28.7768C23.6376 28.7036 23.6172 28.6202 23.6172 28.5266C23.6172 28.433 23.6376 28.3496 23.6784 28.2764C23.7192 28.2032 23.7756 28.1468 23.8476 28.1072C23.9196 28.0664 24 28.046 24.0888 28.046C24.1656 28.046 24.2346 28.0622 24.2958 28.0946C24.3582 28.1258 24.4092 28.172 24.4488 28.2332V27.6644H24.5766ZM24.0996 28.8956C24.1656 28.8956 24.225 28.8806 24.2778 28.8506C24.3318 28.8194 24.3738 28.7756 24.4038 28.7192C24.435 28.6628 24.4506 28.5986 24.4506 28.5266C24.4506 28.4546 24.435 28.3904 24.4038 28.334C24.3738 28.2776 24.3318 28.2344 24.2778 28.2044C24.225 28.1732 24.1656 28.1576 24.0996 28.1576C24.0324 28.1576 23.9718 28.1732 23.9178 28.2044C23.865 28.2344 23.823 28.2776 23.7918 28.334C23.7618 28.3904 23.7468 28.4546 23.7468 28.5266C23.7468 28.5986 23.7618 28.6628 23.7918 28.7192C23.823 28.7756 23.865 28.8194 23.9178 28.8506C23.9718 28.8806 24.0324 28.8956 24.0996 28.8956ZM25.3195 29.009C25.2283 29.009 25.1461 28.9886 25.0729 28.9478C24.9997 28.9058 24.9421 28.8482 24.9001 28.775C24.8581 28.7018 24.8371 28.619 24.8371 28.5266C24.8371 28.4342 24.8581 28.3514 24.9001 28.2782C24.9421 28.205 24.9997 28.148 25.0729 28.1072C25.1461 28.0664 25.2283 28.046 25.3195 28.046C25.4107 28.046 25.4929 28.0664 25.5661 28.1072C25.6393 28.148 25.6963 28.205 25.7371 28.2782C25.7791 28.3514 25.8001 28.4342 25.8001 28.5266C25.8001 28.619 25.7791 28.7018 25.7371 28.775C25.6963 28.8482 25.6393 28.9058 25.5661 28.9478C25.4929 28.9886 25.4107 29.009 25.3195 29.009ZM25.3195 28.8956C25.3867 28.8956 25.4467 28.8806 25.4995 28.8506C25.5535 28.8194 25.5955 28.7756 25.6255 28.7192C25.6555 28.6628 25.6705 28.5986 25.6705 28.5266C25.6705 28.4546 25.6555 28.3904 25.6255 28.334C25.5955 28.2776 25.5535 28.2344 25.4995 28.2044C25.4467 28.1732 25.3867 28.1576 25.3195 28.1576C25.2523 28.1576 25.1917 28.1732 25.1377 28.2044C25.0849 28.2344 25.0429 28.2776 25.0117 28.334C24.9817 28.3904 24.9667 28.4546 24.9667 28.5266C24.9667 28.5986 24.9817 28.6628 25.0117 28.7192C25.0429 28.7756 25.0849 28.8194 25.1377 28.8506C25.1917 28.8806 25.2523 28.8956 25.3195 28.8956Z" fill="#312783"/>
<path d="M29.2048 27.74H29.338V29H29.2048V27.74ZM30.2034 28.046C30.3222 28.046 30.4164 28.0808 30.486 28.1504C30.5568 28.2188 30.5922 28.319 30.5922 28.451V29H30.4644V28.4636C30.4644 28.3652 30.4398 28.2902 30.3906 28.2386C30.3414 28.187 30.2712 28.1612 30.18 28.1612C30.078 28.1612 29.997 28.1918 29.937 28.253C29.8782 28.313 29.8488 28.3964 29.8488 28.5032V29H29.721V28.0532H29.8434V28.2278C29.8782 28.1702 29.9262 28.1258 29.9874 28.0946C30.0498 28.0622 30.1218 28.046 30.2034 28.046ZM31.898 28.046C31.9868 28.046 32.0672 28.0664 32.1392 28.1072C32.2112 28.1468 32.2676 28.2032 32.3084 28.2764C32.3492 28.3496 32.3696 28.433 32.3696 28.5266C32.3696 28.6214 32.3492 28.7054 32.3084 28.7786C32.2676 28.8518 32.2112 28.9088 32.1392 28.9496C32.0684 28.9892 31.988 29.009 31.898 29.009C31.8212 29.009 31.7516 28.9934 31.6892 28.9622C31.628 28.9298 31.5776 28.883 31.538 28.8218V29.3492H31.4102V28.0532H31.5326V28.2404C31.571 28.178 31.6214 28.13 31.6838 28.0964C31.7474 28.0628 31.8188 28.046 31.898 28.046ZM31.889 28.8956C31.955 28.8956 32.015 28.8806 32.069 28.8506C32.123 28.8194 32.165 28.7756 32.195 28.7192C32.2262 28.6628 32.2418 28.5986 32.2418 28.5266C32.2418 28.4546 32.2262 28.391 32.195 28.3358C32.165 28.2794 32.123 28.2356 32.069 28.2044C32.015 28.1732 31.955 28.1576 31.889 28.1576C31.8218 28.1576 31.7612 28.1732 31.7072 28.2044C31.6544 28.2356 31.6124 28.2794 31.5812 28.3358C31.5512 28.391 31.5362 28.4546 31.5362 28.5266C31.5362 28.5986 31.5512 28.6628 31.5812 28.7192C31.6124 28.7756 31.6544 28.8194 31.7072 28.8506C31.7612 28.8806 31.8218 28.8956 31.889 28.8956ZM32.7525 28.2386C32.7825 28.175 32.8269 28.127 32.8857 28.0946C32.9457 28.0622 33.0195 28.046 33.1071 28.046V28.1702L33.0765 28.1684C32.9769 28.1684 32.8989 28.199 32.8425 28.2602C32.7861 28.3214 32.7579 28.4072 32.7579 28.5176V29H32.6301V28.0532H32.7525V28.2386ZM33.7168 29.009C33.6256 29.009 33.5434 28.9886 33.4702 28.9478C33.397 28.9058 33.3394 28.8482 33.2974 28.775C33.2554 28.7018 33.2344 28.619 33.2344 28.5266C33.2344 28.4342 33.2554 28.3514 33.2974 28.2782C33.3394 28.205 33.397 28.148 33.4702 28.1072C33.5434 28.0664 33.6256 28.046 33.7168 28.046C33.808 28.046 33.8902 28.0664 33.9634 28.1072C34.0366 28.148 34.0936 28.205 34.1344 28.2782C34.1764 28.3514 34.1974 28.4342 34.1974 28.5266C34.1974 28.619 34.1764 28.7018 34.1344 28.775C34.0936 28.8482 34.0366 28.9058 33.9634 28.9478C33.8902 28.9886 33.808 29.009 33.7168 29.009ZM33.7168 28.8956C33.784 28.8956 33.844 28.8806 33.8968 28.8506C33.9508 28.8194 33.9928 28.7756 34.0228 28.7192C34.0528 28.6628 34.0678 28.5986 34.0678 28.5266C34.0678 28.4546 34.0528 28.3904 34.0228 28.334C33.9928 28.2776 33.9508 28.2344 33.8968 28.2044C33.844 28.1732 33.784 28.1576 33.7168 28.1576C33.6496 28.1576 33.589 28.1732 33.535 28.2044C33.4822 28.2344 33.4402 28.2776 33.409 28.334C33.379 28.3904 33.364 28.4546 33.364 28.5266C33.364 28.5986 33.379 28.6628 33.409 28.7192C33.4402 28.7756 33.4822 28.8194 33.535 28.8506C33.589 28.8806 33.6496 28.8956 33.7168 28.8956ZM35.3349 28.0532V28.8848C35.3349 29.0456 35.2953 29.1644 35.2161 29.2412C35.1381 29.3192 35.0199 29.3582 34.8615 29.3582C34.7739 29.3582 34.6905 29.345 34.6113 29.3186C34.5333 29.2934 34.4697 29.258 34.4205 29.2124L34.4853 29.1152C34.5309 29.156 34.5861 29.1878 34.6509 29.2106C34.7169 29.2334 34.7859 29.2448 34.8579 29.2448C34.9779 29.2448 35.0661 29.2166 35.1225 29.1602C35.1789 29.105 35.2071 29.0186 35.2071 28.901V28.7804C35.1675 28.8404 35.1153 28.886 35.0505 28.9172C34.9869 28.9484 34.9161 28.964 34.8381 28.964C34.7493 28.964 34.6683 28.9448 34.5951 28.9064C34.5231 28.8668 34.4661 28.8122 34.4241 28.7426C34.3833 28.6718 34.3629 28.592 34.3629 28.5032C34.3629 28.4144 34.3833 28.3352 34.4241 28.2656C34.4661 28.196 34.5231 28.142 34.5951 28.1036C34.6671 28.0652 34.7481 28.046 34.8381 28.046C34.9185 28.046 34.9911 28.0622 35.0559 28.0946C35.1207 28.127 35.1729 28.1738 35.2125 28.235V28.0532H35.3349ZM34.8507 28.8506C34.9191 28.8506 34.9809 28.8362 35.0361 28.8074C35.0913 28.7774 35.1339 28.736 35.1639 28.6832C35.1951 28.6304 35.2107 28.5704 35.2107 28.5032C35.2107 28.436 35.1951 28.3766 35.1639 28.325C35.1339 28.2722 35.0913 28.2314 35.0361 28.2026C34.9821 28.1726 34.9203 28.1576 34.8507 28.1576C34.7823 28.1576 34.7205 28.172 34.6653 28.2008C34.6113 28.2296 34.5687 28.2704 34.5375 28.3232C34.5075 28.376 34.4925 28.436 34.4925 28.5032C34.4925 28.5704 34.5075 28.6304 34.5375 28.6832C34.5687 28.736 34.6113 28.7774 34.6653 28.8074C34.7205 28.8362 34.7823 28.8506 34.8507 28.8506ZM35.8147 28.2386C35.8447 28.175 35.8891 28.127 35.9479 28.0946C36.0079 28.0622 36.0817 28.046 36.1693 28.046V28.1702L36.1387 28.1684C36.0391 28.1684 35.9611 28.199 35.9047 28.2602C35.8483 28.3214 35.8201 28.4072 35.8201 28.5176V29H35.6923V28.0532H35.8147V28.2386ZM37.2163 28.5662H36.4243C36.4315 28.6646 36.4693 28.7444 36.5377 28.8056C36.6061 28.8656 36.6925 28.8956 36.7969 28.8956C36.8557 28.8956 36.9097 28.8854 36.9589 28.865C37.0081 28.8434 37.0507 28.8122 37.0867 28.7714L37.1587 28.8542C37.1167 28.9046 37.0639 28.943 37.0003 28.9694C36.9379 28.9958 36.8689 29.009 36.7933 29.009C36.6961 29.009 36.6097 28.9886 36.5341 28.9478C36.4597 28.9058 36.4015 28.8482 36.3595 28.775C36.3175 28.7018 36.2965 28.619 36.2965 28.5266C36.2965 28.4342 36.3163 28.3514 36.3559 28.2782C36.3967 28.205 36.4519 28.148 36.5215 28.1072C36.5923 28.0664 36.6715 28.046 36.7591 28.046C36.8467 28.046 36.9253 28.0664 36.9949 28.1072C37.0645 28.148 37.1191 28.205 37.1587 28.2782C37.1983 28.3502 37.2181 28.433 37.2181 28.5266L37.2163 28.5662ZM36.7591 28.1558C36.6679 28.1558 36.5911 28.1852 36.5287 28.244C36.4675 28.3016 36.4327 28.3772 36.4243 28.4708H37.0957C37.0873 28.3772 37.0519 28.3016 36.9895 28.244C36.9283 28.1852 36.8515 28.1558 36.7591 28.1558ZM37.732 29.009C37.6552 29.009 37.5814 28.9982 37.5106 28.9766C37.441 28.9538 37.3864 28.9256 37.3468 28.892L37.4044 28.7912C37.444 28.8224 37.4938 28.8482 37.5538 28.8686C37.6138 28.8878 37.6762 28.8974 37.741 28.8974C37.8274 28.8974 37.891 28.8842 37.9318 28.8578C37.9738 28.8302 37.9948 28.7918 37.9948 28.7426C37.9948 28.7078 37.9834 28.6808 37.9606 28.6616C37.9378 28.6412 37.909 28.6262 37.8742 28.6166C37.8394 28.6058 37.7932 28.5956 37.7356 28.586C37.6588 28.5716 37.597 28.5572 37.5502 28.5428C37.5034 28.5272 37.4632 28.5014 37.4296 28.4654C37.3972 28.4294 37.381 28.3796 37.381 28.316C37.381 28.2368 37.414 28.172 37.48 28.1216C37.546 28.0712 37.6378 28.046 37.7554 28.046C37.8166 28.046 37.8778 28.0544 37.939 28.0712C38.0002 28.0868 38.0506 28.1078 38.0902 28.1342L38.0344 28.2368C37.9564 28.1828 37.8634 28.1558 37.7554 28.1558C37.6738 28.1558 37.612 28.1702 37.57 28.199C37.5292 28.2278 37.5088 28.2656 37.5088 28.3124C37.5088 28.3484 37.5202 28.3772 37.543 28.3988C37.567 28.4204 37.5964 28.4366 37.6312 28.4474C37.666 28.457 37.714 28.4672 37.7752 28.478C37.8508 28.4924 37.9114 28.5068 37.957 28.5212C38.0026 28.5356 38.0416 28.5602 38.074 28.595C38.1064 28.6298 38.1226 28.6778 38.1226 28.739C38.1226 28.8218 38.0878 28.8878 38.0182 28.937C37.9498 28.985 37.8544 29.009 37.732 29.009ZM38.6127 29.009C38.5359 29.009 38.4621 28.9982 38.3913 28.9766C38.3217 28.9538 38.2671 28.9256 38.2275 28.892L38.2851 28.7912C38.3247 28.8224 38.3745 28.8482 38.4345 28.8686C38.4945 28.8878 38.5569 28.8974 38.6217 28.8974C38.7081 28.8974 38.7717 28.8842 38.8125 28.8578C38.8545 28.8302 38.8755 28.7918 38.8755 28.7426C38.8755 28.7078 38.8641 28.6808 38.8413 28.6616C38.8185 28.6412 38.7897 28.6262 38.7549 28.6166C38.7201 28.6058 38.6739 28.5956 38.6163 28.586C38.5395 28.5716 38.4777 28.5572 38.4309 28.5428C38.3841 28.5272 38.3439 28.5014 38.3103 28.4654C38.2779 28.4294 38.2617 28.3796 38.2617 28.316C38.2617 28.2368 38.2947 28.172 38.3607 28.1216C38.4267 28.0712 38.5185 28.046 38.6361 28.046C38.6973 28.046 38.7585 28.0544 38.8197 28.0712C38.8809 28.0868 38.9313 28.1078 38.9709 28.1342L38.9151 28.2368C38.8371 28.1828 38.7441 28.1558 38.6361 28.1558C38.5545 28.1558 38.4927 28.1702 38.4507 28.199C38.4099 28.2278 38.3895 28.2656 38.3895 28.3124C38.3895 28.3484 38.4009 28.3772 38.4237 28.3988C38.4477 28.4204 38.4771 28.4366 38.5119 28.4474C38.5467 28.457 38.5947 28.4672 38.6559 28.478C38.7315 28.4924 38.7921 28.5068 38.8377 28.5212C38.8833 28.5356 38.9223 28.5602 38.9547 28.595C38.9871 28.6298 39.0033 28.6778 39.0033 28.739C39.0033 28.8218 38.9685 28.8878 38.8989 28.937C38.8305 28.985 38.7351 29.009 38.6127 29.009Z" fill="#312783"/>
<path d="M42.752 29.0108C42.6272 29.0108 42.5144 28.9832 42.4136 28.928C42.314 28.8728 42.2354 28.7966 42.1778 28.6994C42.1214 28.601 42.0932 28.4912 42.0932 28.37C42.0932 28.2488 42.1214 28.1396 42.1778 28.0424C42.2354 27.944 42.3146 27.8672 42.4154 27.812C42.5162 27.7568 42.629 27.7292 42.7538 27.7292C42.8474 27.7292 42.9338 27.7448 43.013 27.776C43.0922 27.8072 43.1594 27.8528 43.2146 27.9128L43.13 27.9974C43.0316 27.8978 42.9074 27.848 42.7574 27.848C42.6578 27.848 42.5672 27.8708 42.4856 27.9164C42.404 27.962 42.3398 28.0244 42.293 28.1036C42.2474 28.1828 42.2246 28.2716 42.2246 28.37C42.2246 28.4684 42.2474 28.5572 42.293 28.6364C42.3398 28.7156 42.404 28.778 42.4856 28.8236C42.5672 28.8692 42.6578 28.892 42.7574 28.892C42.9086 28.892 43.0328 28.8416 43.13 28.7408L43.2146 28.8254C43.1594 28.8854 43.0916 28.9316 43.0112 28.964C42.932 28.9952 42.8456 29.0108 42.752 29.0108ZM43.8164 29.009C43.7252 29.009 43.643 28.9886 43.5698 28.9478C43.4966 28.9058 43.439 28.8482 43.397 28.775C43.355 28.7018 43.334 28.619 43.334 28.5266C43.334 28.4342 43.355 28.3514 43.397 28.2782C43.439 28.205 43.4966 28.148 43.5698 28.1072C43.643 28.0664 43.7252 28.046 43.8164 28.046C43.9076 28.046 43.9898 28.0664 44.063 28.1072C44.1362 28.148 44.1932 28.205 44.234 28.2782C44.276 28.3514 44.297 28.4342 44.297 28.5266C44.297 28.619 44.276 28.7018 44.234 28.775C44.1932 28.8482 44.1362 28.9058 44.063 28.9478C43.9898 28.9886 43.9076 29.009 43.8164 29.009ZM43.8164 28.8956C43.8836 28.8956 43.9436 28.8806 43.9964 28.8506C44.0504 28.8194 44.0924 28.7756 44.1224 28.7192C44.1524 28.6628 44.1674 28.5986 44.1674 28.5266C44.1674 28.4546 44.1524 28.3904 44.1224 28.334C44.0924 28.2776 44.0504 28.2344 43.9964 28.2044C43.9436 28.1732 43.8836 28.1576 43.8164 28.1576C43.7492 28.1576 43.6886 28.1732 43.6346 28.2044C43.5818 28.2344 43.5398 28.2776 43.5086 28.334C43.4786 28.3904 43.4636 28.4546 43.4636 28.5266C43.4636 28.5986 43.4786 28.6628 43.5086 28.7192C43.5398 28.7756 43.5818 28.8194 43.6346 28.8506C43.6886 28.8806 43.7492 28.8956 43.8164 28.8956ZM45.7387 28.046C45.8575 28.046 45.9505 28.0802 46.0177 28.1486C46.0861 28.217 46.1203 28.3178 46.1203 28.451V29H45.9925V28.4636C45.9925 28.3652 45.9685 28.2902 45.9205 28.2386C45.8737 28.187 45.8071 28.1612 45.7207 28.1612C45.6223 28.1612 45.5449 28.1918 45.4885 28.253C45.4321 28.313 45.4039 28.3964 45.4039 28.5032V29H45.2761V28.4636C45.2761 28.3652 45.2521 28.2902 45.2041 28.2386C45.1573 28.187 45.0901 28.1612 45.0025 28.1612C44.9053 28.1612 44.8279 28.1918 44.7703 28.253C44.7139 28.313 44.6857 28.3964 44.6857 28.5032V29H44.5579V28.0532H44.6803V28.226C44.7139 28.1684 44.7607 28.124 44.8207 28.0928C44.8807 28.0616 44.9497 28.046 45.0277 28.046C45.1069 28.046 45.1753 28.0628 45.2329 28.0964C45.2917 28.13 45.3355 28.1798 45.3643 28.2458C45.3991 28.1834 45.4489 28.1348 45.5137 28.1C45.5797 28.064 45.6547 28.046 45.7387 28.046ZM46.9547 28.046C47.0435 28.046 47.1239 28.0664 47.1959 28.1072C47.2679 28.1468 47.3243 28.2032 47.3651 28.2764C47.4059 28.3496 47.4263 28.433 47.4263 28.5266C47.4263 28.6214 47.4059 28.7054 47.3651 28.7786C47.3243 28.8518 47.2679 28.9088 47.1959 28.9496C47.1251 28.9892 47.0447 29.009 46.9547 29.009C46.8779 29.009 46.8083 28.9934 46.7459 28.9622C46.6847 28.9298 46.6343 28.883 46.5947 28.8218V29.3492H46.4669V28.0532H46.5893V28.2404C46.6277 28.178 46.6781 28.13 46.7405 28.0964C46.8041 28.0628 46.8755 28.046 46.9547 28.046ZM46.9457 28.8956C47.0117 28.8956 47.0717 28.8806 47.1257 28.8506C47.1797 28.8194 47.2217 28.7756 47.2517 28.7192C47.2829 28.6628 47.2985 28.5986 47.2985 28.5266C47.2985 28.4546 47.2829 28.391 47.2517 28.3358C47.2217 28.2794 47.1797 28.2356 47.1257 28.2044C47.0717 28.1732 47.0117 28.1576 46.9457 28.1576C46.8785 28.1576 46.8179 28.1732 46.7639 28.2044C46.7111 28.2356 46.6691 28.2794 46.6379 28.3358C46.6079 28.391 46.5929 28.4546 46.5929 28.5266C46.5929 28.5986 46.6079 28.6628 46.6379 28.7192C46.6691 28.7756 46.7111 28.8194 46.7639 28.8506C46.8179 28.8806 46.8785 28.8956 46.9457 28.8956ZM47.6868 27.6644H47.8146V29H47.6868V27.6644ZM48.9946 28.5662H48.2026C48.2098 28.6646 48.2476 28.7444 48.316 28.8056C48.3844 28.8656 48.4708 28.8956 48.5752 28.8956C48.634 28.8956 48.688 28.8854 48.7372 28.865C48.7864 28.8434 48.829 28.8122 48.865 28.7714L48.937 28.8542C48.895 28.9046 48.8422 28.943 48.7786 28.9694C48.7162 28.9958 48.6472 29.009 48.5716 29.009C48.4744 29.009 48.388 28.9886 48.3124 28.9478C48.238 28.9058 48.1798 28.8482 48.1378 28.775C48.0958 28.7018 48.0748 28.619 48.0748 28.5266C48.0748 28.4342 48.0946 28.3514 48.1342 28.2782C48.175 28.205 48.2302 28.148 48.2998 28.1072C48.3706 28.0664 48.4498 28.046 48.5374 28.046C48.625 28.046 48.7036 28.0664 48.7732 28.1072C48.8428 28.148 48.8974 28.205 48.937 28.2782C48.9766 28.3502 48.9964 28.433 48.9964 28.5266L48.9946 28.5662ZM48.5374 28.1558C48.4462 28.1558 48.3694 28.1852 48.307 28.244C48.2458 28.3016 48.211 28.3772 48.2026 28.4708H48.874C48.8656 28.3772 48.8302 28.3016 48.7678 28.244C48.7066 28.1852 48.6298 28.1558 48.5374 28.1558ZM49.7551 28.9424C49.7311 28.964 49.7011 28.9808 49.6651 28.9928C49.6303 29.0036 49.5937 29.009 49.5553 29.009C49.4665 29.009 49.3981 28.985 49.3501 28.937C49.3021 28.889 49.2781 28.8212 49.2781 28.7336V28.1612H49.1089V28.0532H49.2781V27.8462H49.4059V28.0532H49.6939V28.1612H49.4059V28.7264C49.4059 28.7828 49.4197 28.826 49.4473 28.856C49.4761 28.8848 49.5169 28.8992 49.5697 28.8992C49.5961 28.8992 49.6213 28.895 49.6453 28.8866C49.6705 28.8782 49.6921 28.8662 49.7101 28.8506L49.7551 28.9424ZM50.7788 28.5662H49.9868C49.994 28.6646 50.0318 28.7444 50.1002 28.8056C50.1686 28.8656 50.255 28.8956 50.3594 28.8956C50.4182 28.8956 50.4722 28.8854 50.5214 28.865C50.5706 28.8434 50.6132 28.8122 50.6492 28.7714L50.7212 28.8542C50.6792 28.9046 50.6264 28.943 50.5628 28.9694C50.5004 28.9958 50.4314 29.009 50.3558 29.009C50.2586 29.009 50.1722 28.9886 50.0966 28.9478C50.0222 28.9058 49.964 28.8482 49.922 28.775C49.88 28.7018 49.859 28.619 49.859 28.5266C49.859 28.4342 49.8788 28.3514 49.9184 28.2782C49.9592 28.205 50.0144 28.148 50.084 28.1072C50.1548 28.0664 50.234 28.046 50.3216 28.046C50.4092 28.046 50.4878 28.0664 50.5574 28.1072C50.627 28.148 50.6816 28.205 50.7212 28.2782C50.7608 28.3502 50.7806 28.433 50.7806 28.5266L50.7788 28.5662ZM50.3216 28.1558C50.2304 28.1558 50.1536 28.1852 50.0912 28.244C50.03 28.3016 49.9952 28.3772 49.9868 28.4708H50.6582C50.6498 28.3772 50.6144 28.3016 50.552 28.244C50.4908 28.1852 50.414 28.1558 50.3216 28.1558Z" fill="#312783"/>
</svg>
