<svg width="72" height="72" viewBox="0 0 72 72" fill="none" xmlns="http://www.w3.org/2000/svg">
<g filter="url(#filter0_ddd)">
<circle cx="36" cy="36" r="35" transform="rotate(90 36 36)" stroke="#312783" stroke-width="2"/>
</g>
<path d="M32.0923 45.752C31.7901 45.7514 31.4932 45.6658 31.2309 45.5037C30.6402 45.1421 30.2729 44.4401 30.2729 43.678V28.2558C30.2729 27.4916 30.6402 26.7917 31.2309 26.4301C31.4995 26.2633 31.8046 26.1776 32.1143 26.1818C32.4241 26.186 32.7271 26.28 32.9917 26.454L45.1922 34.3438C45.4465 34.5161 45.6561 34.7553 45.8014 35.039C45.9467 35.3227 46.0229 35.6416 46.0229 35.9658C46.0229 36.2901 45.9467 36.609 45.8014 36.8927C45.6561 37.1764 45.4465 37.4156 45.1922 37.5878L32.9897 45.4798C32.7189 45.6566 32.4088 45.7507 32.0923 45.752Z" fill="#312783"/>
<defs>
<filter id="filter0_ddd" x="-24" y="-8" width="120" height="120" filterUnits="userSpaceOnUse" color-interpolation-filters="sRGB">
<feFlood flood-opacity="0" result="BackgroundImageFix"/>
<feColorMatrix in="SourceAlpha" type="matrix" values="0 0 0 0 0 0 0 0 0 0 0 0 0 0 0 0 0 0 127 0"/>
<feOffset/>
<feGaussianBlur stdDeviation="0.5"/>
<feColorMatrix type="matrix" values="0 0 0 0 0 0 0 0 0 0 0 0 0 0 0 0 0 0 0.04 0"/>
<feBlend mode="normal" in2="BackgroundImageFix" result="effect1_dropShadow"/>
<feColorMatrix in="SourceAlpha" type="matrix" values="0 0 0 0 0 0 0 0 0 0 0 0 0 0 0 0 0 0 127 0"/>
<feOffset dy="2"/>
<feGaussianBlur stdDeviation="3"/>
<feColorMatrix type="matrix" values="0 0 0 0 0 0 0 0 0 0 0 0 0 0 0 0 0 0 0.04 0"/>
<feBlend mode="normal" in2="effect1_dropShadow" result="effect2_dropShadow"/>
<feColorMatrix in="SourceAlpha" type="matrix" values="0 0 0 0 0 0 0 0 0 0 0 0 0 0 0 0 0 0 127 0"/>
<feOffset dy="16"/>
<feGaussianBlur stdDeviation="12"/>
<feColorMatrix type="matrix" values="0 0 0 0 0 0 0 0 0 0 0 0 0 0 0 0 0 0 0.06 0"/>
<feBlend mode="normal" in2="effect2_dropShadow" result="effect3_dropShadow"/>
<feBlend mode="normal" in="SourceGraphic" in2="effect3_dropShadow" result="shape"/>
</filter>
</defs>
</svg>
