<svg width="450" height="416" viewBox="0 0 450 416" fill="none" xmlns="http://www.w3.org/2000/svg">
<path d="M121.524 92.3698C121.524 92.3698 109.222 90.2674 110.303 100.851C111.125 108.893 121.193 108.097 127.142 106.77C131.18 112.347 138.563 155.239 138.563 155.239C138.563 155.239 149.527 157.211 159.577 155.037C172.154 152.316 178.786 147.136 178.786 147.136C178.786 147.136 173.679 134.867 173.186 128.353C172.884 124.367 172.957 121.185 174.842 116.476C176.775 111.646 179.974 106.64 179.198 102.53C176.507 88.2839 164.065 75.6585 151.971 68.6191C148.968 69.1238 143.68 77.8114 126.831 79.5164C124.579 79.7443 127.211 85.88 126.452 88.9638C125.657 92.1921 121.524 92.3696 121.524 92.3696V92.3698Z" stroke="#354151" stroke-linecap="round" stroke-linejoin="round"/>
<path d="M110.491 96.7004C110.491 96.7004 103.242 90.9744 101.038 87.0463C95.2361 76.7069 102.058 70.7778 102.251 70.5748C104.244 68.4792 108.386 67.212 112.748 62.5215C116.816 58.1467 119.43 52.273 119.43 52.273C119.43 52.273 126.874 41.5543 138.424 42.7653C149.456 43.5299 158.314 49.7559 156.01 61.4533C155.281 64.8414 151.971 68.6189 151.971 68.6189" stroke="#354151" stroke-linecap="round" stroke-linejoin="round"/>
<path d="M145.975 156.256C181.755 156.256 210.76 127.241 210.76 91.4502C210.76 55.659 181.755 26.6445 145.975 26.6445C110.196 26.6445 81.1909 55.659 81.1909 91.4502C81.1909 127.241 110.196 156.256 145.975 156.256Z" stroke="#354151" stroke-linecap="round" stroke-linejoin="round"/>
<path d="M175.01 57.862C180.791 57.862 185.478 55.562 185.478 52.7249C185.478 49.8878 180.791 47.5879 175.01 47.5879C169.228 47.5879 164.542 49.8878 164.542 52.7249C164.542 55.562 169.228 57.862 175.01 57.862Z" stroke="#354151" stroke-linecap="round" stroke-linejoin="round"/>
<path d="M121.437 96.2647C120.377 96.2554 119.513 97.3716 119.377 98.2817C119.336 99.7522 120.051 100.951 121.315 101.172" stroke="#354151" stroke-linecap="round" stroke-linejoin="round"/>
<path d="M233.115 19.582C227.843 20.744 225.292 30.6283 228.576 36.9059C230.926 41.7397 239.019 46.0586 244.568 46.4061C244.568 46.4061 243.756 55.3797 245.15 59.5312C246.438 63.3681 252.04 69.528 252.04 69.528" stroke="#354151" stroke-linecap="round" stroke-linejoin="round"/>
<path d="M243.45 32.4342C235.363 28.1419 231.416 21.3608 234.791 12.0367C236.176 8.01016 240.413 2.10797 244.704 2.04785C250.222 2.21031 250.587 6.7167 249.875 11.1984C248.217 17.1835 253.609 18.5966 257.295 21.2924" stroke="#354151" stroke-linecap="round" stroke-linejoin="round"/>
<path d="M260.071 28.9418C257.908 20.4559 251.469 10.695 254.278 4.96974C254.908 3.70858 255.93 2.12978 257.906 1.31439C259.861 0.507502 264.203 1.27473 266.297 3.37509C273.804 10.2875 273.789 22.152 276.101 31.2968C276.846 34.0133 279.022 42.6948 281.921 43.2345C283.597 43.4865 285.497 42.4806 286.632 41.5325C291.579 37.7724 294.176 37.3791 296.523 39.8391C299.298 42.9069 296.783 45.8751 293.729 49.8981C291.838 52.5873 288.911 54.1665 286.753 56.2993C280.99 60.8768 281.485 67.6226 275.713 70.1559" stroke="#354151" stroke-linecap="round" stroke-linejoin="round"/>
<path d="M192.753 151.886C192.753 151.886 217.271 136.51 229.477 117.397C233.274 111.453 240.803 95.022 246.117 83.0655C249.537 75.3699 248.346 72.7846 252.04 69.5278C254.111 67.2524 276.249 67.9599 279.466 73.1201C278.961 93.5845 279.125 126.799 262.743 146.408C249.127 162.707 237.075 169.666 239.706 180.85C242.739 186.953 256.628 195.944 267.282 197.289C277.118 198.531 284.608 196.471 286.881 200.383C292.674 228.113 273.832 264.094 253.647 276.227C242.17 282.811 227.05 279.69 213.982 277.624C194.606 274.56 160.453 255.135 160.453 255.135" stroke="#354151"/>
<path d="M132.977 154.4C132.977 154.4 128.603 162.349 130.92 165.179C145.921 173.195 188.734 162.972 191.765 152.38C192.312 148.517 187.321 144.998 183.535 144.062C183.529 144.06 183.516 144.068 183.516 144.068" stroke="#354151"/>
<path d="M130.92 165.178C130.92 165.178 116.238 179.825 107.694 198.839C97.793 220.872 94.3639 248.53 103.388 262.245C107.46 268.434 117.361 276.734 127.399 276.973C144.83 277.389 160.453 255.133 160.453 255.133L160.922 255.405" stroke="#354151" stroke-linecap="round" stroke-linejoin="round"/>
<path d="M195.6 272.185C195.6 272.185 77.9588 325.661 66.5746 380.704C57.9846 422.237 137.232 454.397 123.459 494.509C108.764 537.303 1 552.992 1 552.992" stroke="#354151" stroke-linecap="round" stroke-linejoin="round"/>
<path d="M286.88 200.382C286.88 200.382 290.682 166.24 310.609 150.714C337.214 129.984 366.785 147.264 376.337 141.683C389.103 134.224 392.086 121.462 403.126 122.102C409.402 122.466 413.442 129.709 416.964 134.917C420.678 140.408 423.889 146.863 424.075 153.49C424.268 160.402 422.006 167.795 417.754 173.247C397.64 199.042 323.073 194.325 334.403 225.013C357.962 217.373 357.545 215.373 378.251 215.78C399.437 217.081 404.575 241.022 406.585 264.702C408.031 281.725 409.864 298.04 405.508 308.391C402.926 314.186 399.108 316.769 394.447 318.665C381.697 323.85 357.514 322.146 353.167 319.653C341.199 310.609 357.763 277.581 348.861 270.472C326.815 254.217 288.009 311.479 256.188 274.407C255.945 274.125 256.978 275.198 256.978 275.198" stroke="#354151"/>
<path d="M345.465 140.425C359.419 156.149 357.583 172.619 353.76 185.077" stroke="#354151" stroke-linecap="round" stroke-linejoin="round"/>
<path d="M362.029 141.811C372.771 157.534 372.192 163.527 368.369 175.985" stroke="#354151" stroke-linecap="round" stroke-linejoin="round"/>
<path d="M168.871 165.018C169.149 165.087 169.237 169.818 171.638 172.584C174.056 175.371 178.787 176.194 178.787 176.194" stroke="#354151" stroke-linecap="round" stroke-linejoin="round"/>
<path d="M222.083 217.55C222.083 217.55 232.976 224.568 238.865 227.21C244.767 229.858 257.278 233.337 257.278 233.337" stroke="#354151" stroke-linecap="round" stroke-linejoin="round"/>
<path d="M224.456 185.276C234.528 195.004 234.687 202.739 231.579 206.792C225.077 214.901 211.747 228.726 211.747 228.726" stroke="#354151" stroke-linecap="round" stroke-linejoin="round"/>
<path d="M186.678 178.778C186.678 178.778 182.278 181.266 176.621 183.099C170.324 185.139 162.554 186.735 159.304 190.863C155.908 195.176 154.632 201.862 156.371 207.069C157.661 210.935 161.335 216.077 165.298 219.784C173.463 227.421 183.814 232.496 183.814 232.496" stroke="#354151" stroke-linecap="round" stroke-linejoin="round"/>
<path d="M167.613 201.342C169.022 208.555 174.92 213.804 181.045 219.033C185.349 222.707 189.669 226.356 194.708 225.232C205.438 222.839 218.335 208.691 223.618 200.923C226.455 196.86 206.048 179.333 200.434 178.569C196.575 177.674 192.36 182.851 186.803 186.211C182.611 188.746 174.185 190.61 170.127 192.82C166.663 194.706 167.002 198.209 167.613 201.342V201.342Z" stroke="#354151" stroke-linecap="round" stroke-linejoin="round"/>
<path d="M190.798 197.849C192.543 197.534 200.727 191.401 200.016 191.282" stroke="#354151" stroke-linecap="round" stroke-linejoin="round"/>
<path d="M199.875 205.115C203.884 203.86 205.886 201.601 207.697 199.247" stroke="#354151" stroke-linecap="round" stroke-linejoin="round"/>
<path d="M182.278 206.092C184.052 206.092 185.49 204.779 185.49 203.159C185.49 201.538 184.052 200.225 182.278 200.225C180.504 200.225 179.065 201.538 179.065 203.159C179.065 204.779 180.504 206.092 182.278 206.092Z" stroke="#354151" stroke-linecap="round" stroke-linejoin="round"/>
<path d="M192.752 213.356C194.835 213.356 196.523 211.918 196.523 210.143C196.523 208.368 194.835 206.93 192.752 206.93C190.67 206.93 188.981 208.368 188.981 210.143C188.981 211.918 190.67 213.356 192.752 213.356Z" stroke="#354151" stroke-linecap="round" stroke-linejoin="round"/>
<path d="M424.368 153.274C424.368 153.274 444.222 145.728 447.11 136.828C450.462 126.498 450.142 113.198 446.389 101.591C442.958 90.9768 436.656 81.7777 427.667 77.5598C419.871 73.9019 407.925 79.5863 403.645 87.06C398.856 99.7243 412.143 113.669 410.194 125.624" stroke="#354151" stroke-linecap="round" stroke-linejoin="round"/>
<path d="M359.092 320.934C359.092 320.934 349.073 330.64 350.572 336.302C353.223 346.315 366.205 346.866 375.901 353.196C387.334 360.66 405.206 376.293 417.331 374.862C426.322 373.8 431.109 365.29 430.46 357.538C429.747 349.025 413.667 341.335 405.396 333.965C397.564 326.988 396.661 317.581 396.661 317.581" stroke="#354151"/>
<path d="M400.532 233.979C394.525 254.128 379.563 261.245 366.963 264.559" stroke="#354151" stroke-linecap="round" stroke-linejoin="round"/>
<path d="M405.377 253.877C396.285 270.61 390.689 272.826 377.862 275.103" stroke="#354151" stroke-linecap="round" stroke-linejoin="round"/>
<path d="M148.899 213.916C150.202 212.386 151.07 209.348 151.552 207.42C152.795 201.942 152.075 191.547 146.385 191.283C143.213 191.148 140.448 193.672 139.541 197.989C138.49 201.437 140.27 208.646 135.77 208.607C130.179 208.241 121.645 207.79 116.567 207.21C105.399 205.977 104.748 207.781 103.508 211.541C103.048 220.099 120.647 222.423 125.435 226.49C126.948 228.65 125.163 229.793 123.48 230.402C111.867 233.743 100.917 232.751 101.909 242.206C101.875 250.839 127.377 246.751 136.329 242.417" stroke="#354151" stroke-linecap="round" stroke-linejoin="round"/>
<path d="M136.954 246.3C135.542 241.634 137.258 235.934 140.184 232.037C141.885 229.772 144.887 227.182 147.62 227.925C149.614 228.467 150.617 231.199 150.78 233.259C151.057 236.758 148.278 239.819 146.908 243.049C145.638 246.042 146.069 251.308 142.88 251.931C140.206 252.452 137.744 248.908 136.954 246.3V246.3Z" stroke="#354151"/>
<path d="M146.699 251.482C144.727 246.412 148.283 240.157 151.745 235.962C153.548 233.777 156.448 231.106 159.181 231.85C161.175 232.392 162.178 235.124 162.341 237.184C162.618 240.683 159.839 243.744 158.468 246.974C157.199 249.967 157.53 254.847 154.44 255.855C151.623 256.775 147.774 254.244 146.699 251.482V251.482Z" stroke="#354151"/>
<path d="M148.899 213.916C151.1 214.756 160.044 223.841 158.204 231.449" stroke="#354151" stroke-linecap="round" stroke-linejoin="round"/>
</svg>
