<svg width="40" height="40" viewBox="0 0 40 40" fill="none" xmlns="http://www.w3.org/2000/svg">
<path d="M20.0001 3.86484C25.2556 3.86484 25.8774 3.88516 27.9532 3.97969C29.872 4.06719 30.9142 4.3875 31.6079 4.65703C32.4637 4.97207 33.2379 5.47504 33.8735 6.12891C34.5274 6.76455 35.0304 7.53876 35.3454 8.39453C35.6149 9.08828 35.9353 10.1305 36.0228 12.0492C36.1173 14.1242 36.1376 14.7469 36.1376 20.0023C36.1376 25.2578 36.1173 25.8797 36.0228 27.9555C35.9353 29.8742 35.6149 30.9164 35.3454 31.6102C35.018 32.4589 34.5165 33.2298 33.8732 33.8731C33.2299 34.5164 32.459 35.0179 31.6103 35.3453C30.9165 35.6148 29.8743 35.9352 27.9556 36.0227C25.8806 36.1172 25.2579 36.1375 20.0024 36.1375C14.747 36.1375 14.1243 36.1172 12.0493 36.0227C10.1306 35.9352 9.08838 35.6148 8.39463 35.3453C7.53886 35.0303 6.76465 34.5273 6.129 33.8734C5.47514 33.2378 4.97217 32.4636 4.65713 31.6078C4.3876 30.9141 4.06729 29.8719 3.97979 27.9531C3.88525 25.8781 3.86494 25.2555 3.86494 20C3.86494 14.7445 3.88525 14.1227 3.97979 12.0469C4.06729 10.1281 4.3876 9.08594 4.65713 8.39219C4.97217 7.53642 5.47514 6.76221 6.129 6.12656C6.76465 5.4727 7.53886 4.96973 8.39463 4.65469C9.08838 4.38516 10.1306 4.06484 12.0493 3.97734C14.1243 3.88281 14.747 3.8625 20.0024 3.8625L20.0001 3.86484ZM20.0024 0.316406C14.6571 0.316406 13.9868 0.339062 11.8876 0.435156C9.78838 0.53125 8.35947 0.865625 7.10947 1.35156C5.79566 1.84562 4.60548 2.62042 3.62197 3.62188C2.62051 4.60538 1.84572 5.79556 1.35166 7.10938C0.865723 8.35938 0.53291 9.79063 0.437598 11.8852C0.342285 13.9797 0.318848 14.6547 0.318848 20C0.318848 25.3453 0.341504 26.0156 0.437598 28.1148C0.533691 30.2141 0.865723 31.6406 1.35166 32.8906C1.84592 34.2039 2.6207 35.3935 3.62197 36.3766C4.6054 37.3783 5.79559 38.1534 7.10947 38.6477C8.35947 39.1344 9.79229 39.4672 11.8868 39.5625C13.9813 39.6578 14.6563 39.6813 20.0017 39.6813C25.347 39.6813 26.0173 39.6586 28.1165 39.5625C30.2157 39.4664 31.6407 39.1344 32.8907 38.6477C34.1984 38.142 35.386 37.3687 36.3774 36.3773C37.3688 35.3859 38.1421 34.1983 38.6478 32.8906C39.1345 31.6406 39.4673 30.2078 39.5626 28.1133C39.6579 26.0188 39.6814 25.3438 39.6814 19.9984C39.6814 14.6531 39.6587 13.9828 39.5626 11.8836C39.4665 9.78438 39.1345 8.35938 38.6478 7.10938C38.1535 5.79612 37.3787 4.60649 36.3774 3.62344C35.3943 2.62151 34.2044 1.84618 32.8907 1.35156C31.6407 0.865625 30.2095 0.532812 28.1149 0.4375C26.0204 0.342187 25.3454 0.31875 20.0001 0.31875L20.0024 0.316406Z" fill="white"/>
<path d="M19.9998 9.89355C18.001 9.89355 16.047 10.4863 14.3851 11.5968C12.7231 12.7073 11.4278 14.2856 10.6629 16.1323C9.89793 17.979 9.6978 20.011 10.0877 21.9714C10.4777 23.9319 11.4402 25.7326 12.8536 27.146C14.267 28.5594 16.0678 29.5219 18.0282 29.9119C19.9886 30.3018 22.0206 30.1017 23.8673 29.3368C25.714 28.5718 27.2924 27.2765 28.4029 25.6145C29.5133 23.9526 30.1061 21.9986 30.1061 19.9998C30.1061 17.3195 29.0413 14.7489 27.146 12.8536C25.2507 10.9583 22.6802 9.89355 19.9998 9.89355ZM19.9998 26.5623C18.7019 26.5623 17.4331 26.1774 16.3539 25.4563C15.2747 24.7352 14.4336 23.7103 13.9369 22.5112C13.4402 21.312 13.3102 19.9925 13.5634 18.7195C13.8166 17.4465 14.4416 16.2772 15.3594 15.3594C16.2772 14.4416 17.4465 13.8166 18.7195 13.5634C19.9925 13.3102 21.312 13.4401 22.5112 13.9368C23.7103 14.4335 24.7352 15.2747 25.4563 16.3539C26.1774 17.4331 26.5623 18.7019 26.5623 19.9998C26.5623 21.7403 25.8709 23.4095 24.6402 24.6402C23.4095 25.8709 21.7403 26.5623 19.9998 26.5623Z" fill="white"/>
<path d="M30.5063 11.8553C31.8106 11.8553 32.868 10.7979 32.868 9.49356C32.868 8.18921 31.8106 7.13184 30.5063 7.13184C29.2019 7.13184 28.1445 8.18921 28.1445 9.49356C28.1445 10.7979 29.2019 11.8553 30.5063 11.8553Z" fill="white"/>
</svg>
